{
    "作者": 0.7173033707865168,
    "简称": 0.7266666666666666,
    "父亲": 0.6499280575539568,
    "成立日期": 0.7224999999999999,
    "国籍": 0.7220689655172414,
    "嘉宾": 0.6252173913043477,
    "董事长": 0.7266666666666666,
    "获奖": 0.6885714285714286,
    "主角": 0.7266666666666666,
    "票房": 0.7266666666666666,
    "校长": 0.7266666666666666,
    "作曲": 0.5933333333333333,
    "朝代": 0.6963636363636363,
    "歌手": 0.6733333333333333,
    "祖籍": 0.7266666666666666,
    "主题曲": 0.6525925925925926,
    "占地面积": 0.7266666666666666,
    "主持人": 0.7051612903225806,
    "所在城市": 0.7266666666666666,
    "配音": 0.7175342465753425,
    "主演": 0.5562406015037593,
    "编剧": 0.6314285714285715,
    "出品公司": 0.7086486486486487,
    "母亲": 0.701025641025641,
    "总部地点": 0.6599999999999999,
    "上映时间": 0.7145454545454546,
    "首都": 0.7266666666666666,
    "号": 0.7266666666666666,
    "作词": 0.5215384615384615,
    "导演": 0.6951351351351351,
    "海拔": 0.7266666666666666,
    "官方语言": 0.7266666666666666,
    "所属专辑": 0.5464864864864865,
    "代言人": 0.7266666666666666,
    "面积": 0.7266666666666666,
    "创始人": 0.6686956521739131,
    "气候": 0.7266666666666666,
    "制片人": 0.42363636363636364,
    "注册资本": 0.6599999999999999,
    "饰演": 0.6314285714285715
}